0.0 1.23456794E9
0.0149998665 0.001234
0.021999836 0.001134
0.026000023 0.001334
0.029999733 0.001164
0.034999847 0.001234
0.03999996 0.001134
0.046000004 0.002334
0.0539999 1.64E-4
0.058000088 0.001334
0.061999798 0.001164
0.3670001 0.001234
0.86800003 0.001134
